Assignment 2: Monthly Report EXIST July, 2020
…
We may be also interested in the daily difference between these prices.

plot3<-EXIST_raw_df %>% group_by(Day=lubridate::day(Date))%>% summarise(daily_average_MCP = mean(MCP), daily_average_SMP = mean(SMP),Difference = abs(mean(MCP)-mean(SMP)))%>%print(plot3)

## # A tibble: 31 x 4
##     Day daily_average_MCP daily_average_SMP Difference
##   <int>             <dbl>             <dbl>      <dbl>
## 1     1              320.              268.       51.8
## 2     2              298.              357.       58.6
## 3     3              317.              373.       56.2
## 4     4              306.              321.       15.3
## 5     5              258.              198.       59.8
## # ... with 26 more rows
…
2.1. Day Ahead Market (DAM)

2.1.1 Hourly Day Ahead Market

Since the electricity energy market prices are planned on an hourly basis, it will be useful to find the hourly average, minimum, and maximum values in order to gain some insights about the data. Firstly, the plot data is provided, and then the plot is constructed.

plot4<-EXIST_raw_df%>% group_by(Hour=lubridate::hour(Date))%>%summarise(hourly_average_MCP=mean(MCP), hourly_min_MCP=min(MCP), hourly_max_MCP=max(MCP))%>%print()

## # A tibble: 24 x 4
##    Hour hourly_average_MCP hourly_min_MCP hourly_max_MCP
##   <int>              <dbl>          <dbl>          <dbl>
## 1     0               297.           230.           324.
## 2     1               306.           293            327.
## 3     2               298.           230.           324.
## 4     3               284.           199.           322.
## 5     4               285.           219.           320 
## # ... with 19 more rows
…
2.1.2 Daily Day Ahead Market

Day Ahead Market daily prices for the minimum, maximum, and average values can be see below.

plot5<-EXIST_raw_df%>% group_by(Day=lubridate::day(Date))%>%summarise(daily_average_MCP=mean(MCP), daily_min_MCP=min(MCP), daily_max_MCP=max(MCP))%>%print()

## # A tibble: 31 x 4
##     Day daily_average_MCP daily_min_MCP daily_max_MCP
##   <int>             <dbl>         <dbl>         <dbl>
## 1     1              320.          210.          332.
## 2     2              298.          199.          322.
## 3     3              317.          293           331.
## 4     4              306.          238.          314.
## 5     5              258.          174.          306.
## # ... with 26 more rows
…
2.1.4 Day of the Week Day Ahead Market

Day Ahead Market prices according to the days of the week can be seen below. It should be noted that weekday 1 is equal to Sunday.

plot7<-EXIST_raw_df %>% group_by(Week_Day= lubridate::wday(Date))%>% summarise(Weekday_average_MCP = mean(MCP),Weekday_min_MCP=min(MCP),Weekday_max_MCP=max(MCP)) %>%print()

## # A tibble: 7 x 4
##   Week_Day Weekday_average_MCP Weekday_min_MCP Weekday_max_MCP
##      <dbl>               <dbl>           <dbl>           <dbl>
## 1        1                275.            174.            320.
## 2        2                302.            140.            350 
## 3        3                299.            194.            350.
## 4        4                307.            197.            350.
## 5        5                297.            197.            327.
## # ... with 2 more rows
…
2.2. Balancing Power Market (BPM)

2.2.1 Hourly Balancing Power Market

Balancing Power Market hourly prices for the minimum, maximum, and average values can be see below.

plot9<-EXIST_raw_df%>% group_by(Hour=lubridate::hour(Date))%>%summarise(hourly_average_MSMP=mean(SMP), hourly_min_SMP=min(SMP), hourly_max_SMP=max(SMP))%>%print(plot)

## # A tibble: 24 x 4
##    Hour hourly_average_MSMP hourly_min_SMP hourly_max_SMP
##   <int>               <dbl>          <dbl>          <dbl>
## 1     0                294.            179           365 
## 2     1                308.            180           361.
## 3     2                297.            180           357.
## 4     3                283.            176           350 
## 5     4                280.            170           347.
## # ... with 19 more rows
…
2.2.2 Daily Balancing Power Market

Balancing Power Market daily prices for the minimum, maximum, and average values can be see below.

plot10<-EXIST_raw_df%>%group_by(Day=lubridate::day(Date))%>%summarise(daily_average_SMP=mean(SMP), daily_min_SMP=min(SMP), daily_max_SMP=max(SMP))%>%print()

## # A tibble: 31 x 4
##     Day daily_average_SMP daily_min_SMP daily_max_SMP
##   <int>             <dbl>         <dbl>         <dbl>
## 1     1              268.          114.          377.
## 2     2              357.          229.          404.
## 3     3              373.          335.          460 
## 4     4              321.          235           365 
## 5     5              198.          120           266.
## # ... with 26 more rows
…
2.2.4 Day of the Week Balancing Power Market

Balancing Power Market prices according to the days of the week can be seen below. It should be noted that weekday 1 is equal to Sunday.

plot12<-EXIST_raw_df%>%group_by(Week_Day=lubridate::wday(Date))%>%summarise(Weekday_average_SMP=mean(SMP),Weekday_min_SMP=min(SMP),Weekday_max_SMP=max(SMP))%>%print()

## # A tibble: 7 x 4
##   Week_Day Weekday_average_SMP Weekday_min_SMP Weekday_max_SMP
##      <dbl>               <dbl>           <dbl>           <dbl>
## 1        1                289.            120             419.
## 2        2                317.            140.            435 
## 3        3                314.            179             374.
## 4        4                276.            114.            386.
## 5        5                301.            124.            404.
## # ... with 2 more rows
…
